{
  "type": "doc",
  "version": 1,
  "content": [
    {
      "type": "mediaSingle",
      "attrs": {
        "layout": "full-width"
      },
      "content": [
        {
          "type": "media",
          "attrs": {
            "id": "2aa22582-ca0e-4bd4-b1bc-9369d10a0719",
            "type": "file",
            "collection": "MediaServicesSample",
            "width": 800,
            "height": 600
          }
        }
      ]
    }
  ]
}
