[
  {
    "team": "editor",
    "package": "@atlaskit/renderer",
    "version": "48.7.2",
    "dependent": true,
    "id": "src.main",
    "name": "main",
    "stats": {
      "size": 57885,
      "gzipSize": 15407
    }
  },
  {
    "team": "editor",
    "package": "@atlaskit/renderer",
    "version": "48.7.2",
    "dependent": true,
    "id": "src.async",
    "name": "async",
    "stats": {
      "size": 7847,
      "gzipSize": 2383
    }
  },
  {
    "team": "editor",
    "package": "@atlaskit/renderer",
    "version": "48.7.2",
    "dependent": true,
    "id": "node_modules.main",
    "name": "node_modules [main]",
    "stats": {
      "size": 532958,
      "gzipSize": 151405
    }
  },
  {
    "team": "editor",
    "package": "@atlaskit/renderer",
    "version": "48.7.2",
    "dependent": true,
    "id": "node_modules.async",
    "name": "node_modules [async]",
    "stats": {
      "size": 1637477,
      "gzipSize": 485738
    }
  },
  {
    "team": "editor",
    "package": "@atlaskit/renderer",
    "version": "48.7.2",
    "dependent": true,
    "id": "atlaskit.core.main",
    "name": "main",
    "stats": {
      "size": 109457,
      "gzipSize": 27948
    }
  },
  {
    "team": "editor",
    "package": "@atlaskit/renderer",
    "version": "48.7.2",
    "dependent": true,
    "id": "atlaskit.core.async",
    "name": "async",
    "stats": {
      "size": 135215,
      "gzipSize": 25104
    }
  },
  {
    "team": "editor",
    "package": "@atlaskit/renderer",
    "version": "48.7.2",
    "dependent": true,
    "id": "atlaskit.editor.main",
    "name": "main",
    "stats": {
      "size": 110247,
      "gzipSize": 25890
    }
  },
  {
    "team": "editor",
    "package": "@atlaskit/renderer",
    "version": "48.7.2",
    "dependent": true,
    "id": "atlaskit.editor.async",
    "name": "async",
    "stats": {
      "size": 1680,
      "gzipSize": 714
    }
  },
  {
    "team": "editor",
    "package": "@atlaskit/renderer",
    "version": "48.7.2",
    "dependent": true,
    "id": "atlaskit.elements.main",
    "name": "main",
    "stats": {
      "size": 50996,
      "gzipSize": 13203
    }
  },
  {
    "team": "editor",
    "package": "@atlaskit/renderer",
    "version": "48.7.2",
    "dependent": true,
    "id": "atlaskit.elements.async",
    "name": "async",
    "stats": {
      "size": 8743,
      "gzipSize": 3146
    }
  },
  {
    "team": "editor",
    "package": "@atlaskit/renderer",
    "version": "48.7.2",
    "dependent": true,
    "id": "atlaskit.media.async",
    "name": "async",
    "stats": {
      "size": 372113,
      "gzipSize": 86251
    }
  },
  {
    "team": "editor",
    "package": "@atlaskit/renderer",
    "version": "48.7.2",
    "dependent": true,
    "id": "atlaskit.people-and-teams.main",
    "name": "main",
    "stats": {
      "size": 71666,
      "gzipSize": 12543
    }
  },
  {
    "team": "editor",
    "package": "@atlaskit/renderer",
    "version": "48.7.2",
    "dependent": true,
    "id": "atlaskit.teamwork-ecosystem.async",
    "name": "async",
    "stats": {
      "size": 623,
      "gzipSize": 366
    }
  },
  {
    "team": "editor",
    "package": "@atlaskit/renderer",
    "version": "48.7.2",
    "dependent": true,
    "id": "combined.main",
    "name": "main",
    "stats": {
      "size": 924684,
      "gzipSize": 246085
    }
  },
  {
    "team": "editor",
    "package": "@atlaskit/renderer",
    "version": "48.7.2",
    "dependent": true,
    "id": "combined.async",
    "name": "async",
    "stats": {
      "size": 2160435,
      "gzipSize": 606390
    }
  }
]