[
  {
    "id": "src.main",
    "name": "main",
    "stats": {
      "size": 6355,
      "gzipSize": 2081
    }
  },
  {
    "id": "node_modules.main",
    "name": "node_modules [main]",
    "stats": {
      "size": 2899,
      "gzipSize": 975
    }
  },
  {
    "id": "combined.main",
    "name": "main",
    "stats": {
      "size": 8628,
      "gzipSize": 2547
    }
  }
]